{
  "request": {
    "url": "http://localhost:3000/api/people?page=2",
    "method": "GET",
    "headers": {
      "referer": "http://localhost:3000/people",
      "user-agent": "Mozilla/5.0 (Windows NT 10.0; Win64; x64) AppleWebKit/537.36 (KHTML, like Gecko) Chrome/85.0.4183.102 Safari/537.36"
    },
    "resourceType": "fetch"
  },
  "response": {
    "url": "http://localhost:3000/api/people?page=2",
    "status": 200,
    "headers": {
      "content-security-policy": "default-src 'self';base-uri 'self';block-all-mixed-content;font-src 'self' https: data:;frame-ancestors 'self';img-src 'self' data:;object-src 'none';script-src 'self';script-src-attr 'none';style-src 'self' https: 'unsafe-inline';upgrade-insecure-requests",
      "content-encoding": "gzip",
      "x-content-type-options": "nosniff",
      "x-permitted-cross-domain-policies": "none",
      "x-dns-prefetch-control": "off",
      "connection": "close",
      "vary": "Accept-Encoding",
      "x-xss-protection": "0",
      "referrer-policy": "no-referrer",
      "x-frame-options": "SAMEORIGIN",
      "expect-ct": "max-age=0",
      "strict-transport-security": "max-age=15552000; includeSubDomains",
      "x-download-options": "noopen",
      "content-type": "application/json; charset=utf-8",
      "access-control-allow-origin": "*",
      "transfer-encoding": "chunked"
    },
    "body": {
      "count": 82,
      "next": "http://swapi.dev/api/people/?page=3",
      "previous": "http://swapi.dev/api/people/?page=1",
      "results": [
        {
          "name": "Anakin Skywalker",
          "height": "188",
          "mass": "84",
          "hair_color": "blond",
          "skin_color": "fair",
          "eye_color": "blue",
          "birth_year": "41.9BBY",
          "gender": "male",
          "homeworld": "http://swapi.dev/api/planets/1/",
          "films": [
            "http://swapi.dev/api/films/4/",
            "http://swapi.dev/api/films/5/",
            "http://swapi.dev/api/films/6/"
          ],
          "species": [],
          "vehicles": [
            "http://swapi.dev/api/vehicles/44/",
            "http://swapi.dev/api/vehicles/46/"
          ],
          "starships": [
            "http://swapi.dev/api/starships/39/",
            "http://swapi.dev/api/starships/59/",
            "http://swapi.dev/api/starships/65/"
          ],
          "created": "2014-12-10T16:20:44.310000Z",
          "edited": "2014-12-20T21:17:50.327000Z",
          "url": "http://swapi.dev/api/people/11/",
          "favorite": false
        },
        {
          "name": "Wilhuff Tarkin",
          "height": "180",
          "mass": "unknown",
          "hair_color": "auburn, grey",
          "skin_color": "fair",
          "eye_color": "blue",
          "birth_year": "64BBY",
          "gender": "male",
          "homeworld": "http://swapi.dev/api/planets/21/",
          "films": [
            "http://swapi.dev/api/films/1/",
            "http://swapi.dev/api/films/6/"
          ],
          "species": [],
          "vehicles": [],
          "starships": [],
          "created": "2014-12-10T16:26:56.138000Z",
          "edited": "2014-12-20T21:17:50.330000Z",
          "url": "http://swapi.dev/api/people/12/",
          "favorite": false
        },
        {
          "name": "Chewbacca",
          "height": "228",
          "mass": "112",
          "hair_color": "brown",
          "skin_color": "unknown",
          "eye_color": "blue",
          "birth_year": "200BBY",
          "gender": "male",
          "homeworld": "http://swapi.dev/api/planets/14/",
          "films": [
            "http://swapi.dev/api/films/1/",
            "http://swapi.dev/api/films/2/",
            "http://swapi.dev/api/films/3/",
            "http://swapi.dev/api/films/6/"
          ],
          "species": [
            "http://swapi.dev/api/species/3/"
          ],
          "vehicles": [
            "http://swapi.dev/api/vehicles/19/"
          ],
          "starships": [
            "http://swapi.dev/api/starships/10/",
            "http://swapi.dev/api/starships/22/"
          ],
          "created": "2014-12-10T16:42:45.066000Z",
          "edited": "2014-12-20T21:17:50.332000Z",
          "url": "http://swapi.dev/api/people/13/",
          "favorite": false
        },
        {
          "name": "Han Solo",
          "height": "180",
          "mass": "80",
          "hair_color": "brown",
          "skin_color": "fair",
          "eye_color": "brown",
          "birth_year": "29BBY",
          "gender": "male",
          "homeworld": "http://swapi.dev/api/planets/22/",
          "films": [
            "http://swapi.dev/api/films/1/",
            "http://swapi.dev/api/films/2/",
            "http://swapi.dev/api/films/3/"
          ],
          "species": [],
          "vehicles": [],
          "starships": [
            "http://swapi.dev/api/starships/10/",
            "http://swapi.dev/api/starships/22/"
          ],
          "created": "2014-12-10T16:49:14.582000Z",
          "edited": "2014-12-20T21:17:50.334000Z",
          "url": "http://swapi.dev/api/people/14/",
          "favorite": false
        },
        {
          "name": "Greedo",
          "height": "173",
          "mass": "74",
          "hair_color": "n/a",
          "skin_color": "green",
          "eye_color": "black",
          "birth_year": "44BBY",
          "gender": "male",
          "homeworld": "http://swapi.dev/api/planets/23/",
          "films": [
            "http://swapi.dev/api/films/1/"
          ],
          "species": [
            "http://swapi.dev/api/species/4/"
          ],
          "vehicles": [],
          "starships": [],
          "created": "2014-12-10T17:03:30.334000Z",
          "edited": "2014-12-20T21:17:50.336000Z",
          "url": "http://swapi.dev/api/people/15/",
          "favorite": false
        },
        {
          "name": "Jabba Desilijic Tiure",
          "height": "175",
          "mass": "1,358",
          "hair_color": "n/a",
          "skin_color": "green-tan, brown",
          "eye_color": "orange",
          "birth_year": "600BBY",
          "gender": "hermaphrodite",
          "homeworld": "http://swapi.dev/api/planets/24/",
          "films": [
            "http://swapi.dev/api/films/1/",
            "http://swapi.dev/api/films/3/",
            "http://swapi.dev/api/films/4/"
          ],
          "species": [
            "http://swapi.dev/api/species/5/"
          ],
          "vehicles": [],
          "starships": [],
          "created": "2014-12-10T17:11:31.638000Z",
          "edited": "2014-12-20T21:17:50.338000Z",
          "url": "http://swapi.dev/api/people/16/",
          "favorite": false
        },
        {
          "name": "Wedge Antilles",
          "height": "170",
          "mass": "77",
          "hair_color": "brown",
          "skin_color": "fair",
          "eye_color": "hazel",
          "birth_year": "21BBY",
          "gender": "male",
          "homeworld": "http://swapi.dev/api/planets/22/",
          "films": [
            "http://swapi.dev/api/films/1/",
            "http://swapi.dev/api/films/2/",
            "http://swapi.dev/api/films/3/"
          ],
          "species": [],
          "vehicles": [
            "http://swapi.dev/api/vehicles/14/"
          ],
          "starships": [
            "http://swapi.dev/api/starships/12/"
          ],
          "created": "2014-12-12T11:08:06.469000Z",
          "edited": "2014-12-20T21:17:50.341000Z",
          "url": "http://swapi.dev/api/people/18/",
          "favorite": false
        },
        {
          "name": "Jek Tono Porkins",
          "height": "180",
          "mass": "110",
          "hair_color": "brown",
          "skin_color": "fair",
          "eye_color": "blue",
          "birth_year": "unknown",
          "gender": "male",
          "homeworld": "http://swapi.dev/api/planets/26/",
          "films": [
            "http://swapi.dev/api/films/1/"
          ],
          "species": [],
          "vehicles": [],
          "starships": [
            "http://swapi.dev/api/starships/12/"
          ],
          "created": "2014-12-12T11:16:56.569000Z",
          "edited": "2014-12-20T21:17:50.343000Z",
          "url": "http://swapi.dev/api/people/19/",
          "favorite": false
        },
        {
          "name": "Yoda",
          "height": "66",
          "mass": "17",
          "hair_color": "white",
          "skin_color": "green",
          "eye_color": "brown",
          "birth_year": "896BBY",
          "gender": "male",
          "homeworld": "http://swapi.dev/api/planets/28/",
          "films": [
            "http://swapi.dev/api/films/2/",
            "http://swapi.dev/api/films/3/",
            "http://swapi.dev/api/films/4/",
            "http://swapi.dev/api/films/5/",
            "http://swapi.dev/api/films/6/"
          ],
          "species": [
            "http://swapi.dev/api/species/6/"
          ],
          "vehicles": [],
          "starships": [],
          "created": "2014-12-15T12:26:01.042000Z",
          "edited": "2014-12-20T21:17:50.345000Z",
          "url": "http://swapi.dev/api/people/20/",
          "favorite": false
        },
        {
          "name": "Palpatine",
          "height": "170",
          "mass": "75",
          "hair_color": "grey",
          "skin_color": "pale",
          "eye_color": "yellow",
          "birth_year": "82BBY",
          "gender": "male",
          "homeworld": "http://swapi.dev/api/planets/8/",
          "films": [
            "http://swapi.dev/api/films/2/",
            "http://swapi.dev/api/films/3/",
            "http://swapi.dev/api/films/4/",
            "http://swapi.dev/api/films/5/",
            "http://swapi.dev/api/films/6/"
          ],
          "species": [],
          "vehicles": [],
          "starships": [],
          "created": "2014-12-15T12:48:05.971000Z",
          "edited": "2014-12-20T21:17:50.347000Z",
          "url": "http://swapi.dev/api/people/21/",
          "favorite": false
        }
      ]
    }
  }
}