{
  "request": {
    "url": "http://localhost:3000/api/people?page=4",
    "method": "GET",
    "headers": {
      "referer": "http://localhost:3000/people",
      "user-agent": "Mozilla/5.0 (Windows NT 10.0; Win64; x64) AppleWebKit/537.36 (KHTML, like Gecko) Chrome/85.0.4183.102 Safari/537.36"
    },
    "resourceType": "fetch"
  },
  "response": {
    "url": "http://localhost:3000/api/people?page=4",
    "status": 200,
    "headers": {
      "content-security-policy": "default-src 'self';base-uri 'self';block-all-mixed-content;font-src 'self' https: data:;frame-ancestors 'self';img-src 'self' data:;object-src 'none';script-src 'self';script-src-attr 'none';style-src 'self' https: 'unsafe-inline';upgrade-insecure-requests",
      "content-encoding": "gzip",
      "x-content-type-options": "nosniff",
      "x-permitted-cross-domain-policies": "none",
      "x-dns-prefetch-control": "off",
      "connection": "close",
      "vary": "Accept-Encoding",
      "x-xss-protection": "0",
      "referrer-policy": "no-referrer",
      "x-frame-options": "SAMEORIGIN",
      "expect-ct": "max-age=0",
      "strict-transport-security": "max-age=15552000; includeSubDomains",
      "x-download-options": "noopen",
      "content-type": "application/json; charset=utf-8",
      "access-control-allow-origin": "*",
      "transfer-encoding": "chunked"
    },
    "body": {
      "count": 82,
      "next": "http://swapi.dev/api/people/?page=5",
      "previous": "http://swapi.dev/api/people/?page=3",
      "results": [
        {
          "name": "Qui-Gon Jinn",
          "height": "193",
          "mass": "89",
          "hair_color": "brown",
          "skin_color": "fair",
          "eye_color": "blue",
          "birth_year": "92BBY",
          "gender": "male",
          "homeworld": "http://swapi.dev/api/planets/28/",
          "films": [
            "http://swapi.dev/api/films/4/"
          ],
          "species": [],
          "vehicles": [
            "http://swapi.dev/api/vehicles/38/"
          ],
          "starships": [],
          "created": "2014-12-19T16:54:53.618000Z",
          "edited": "2014-12-20T21:17:50.375000Z",
          "url": "http://swapi.dev/api/people/32/",
          "favorite": false
        },
        {
          "name": "Nute Gunray",
          "height": "191",
          "mass": "90",
          "hair_color": "none",
          "skin_color": "mottled green",
          "eye_color": "red",
          "birth_year": "unknown",
          "gender": "male",
          "homeworld": "http://swapi.dev/api/planets/18/",
          "films": [
            "http://swapi.dev/api/films/4/",
            "http://swapi.dev/api/films/5/",
            "http://swapi.dev/api/films/6/"
          ],
          "species": [
            "http://swapi.dev/api/species/11/"
          ],
          "vehicles": [],
          "starships": [],
          "created": "2014-12-19T17:05:57.357000Z",
          "edited": "2014-12-20T21:17:50.377000Z",
          "url": "http://swapi.dev/api/people/33/",
          "favorite": false
        },
        {
          "name": "Finis Valorum",
          "height": "170",
          "mass": "unknown",
          "hair_color": "blond",
          "skin_color": "fair",
          "eye_color": "blue",
          "birth_year": "91BBY",
          "gender": "male",
          "homeworld": "http://swapi.dev/api/planets/9/",
          "films": [
            "http://swapi.dev/api/films/4/"
          ],
          "species": [],
          "vehicles": [],
          "starships": [],
          "created": "2014-12-19T17:21:45.915000Z",
          "edited": "2014-12-20T21:17:50.379000Z",
          "url": "http://swapi.dev/api/people/34/",
          "favorite": false
        },
        {
          "name": "Padmé Amidala",
          "height": "185",
          "mass": "45",
          "hair_color": "brown",
          "skin_color": "light",
          "eye_color": "brown",
          "birth_year": "46BBY",
          "gender": "female",
          "homeworld": "http://swapi.dev/api/planets/8/",
          "films": [
            "http://swapi.dev/api/films/4/",
            "http://swapi.dev/api/films/5/",
            "http://swapi.dev/api/films/6/"
          ],
          "species": [],
          "vehicles": [],
          "starships": [
            "http://swapi.dev/api/starships/39/",
            "http://swapi.dev/api/starships/49/",
            "http://swapi.dev/api/starships/64/"
          ],
          "created": "2014-12-19T17:28:26.926000Z",
          "edited": "2014-12-20T21:17:50.381000Z",
          "url": "http://swapi.dev/api/people/35/",
          "favorite": false
        },
        {
          "name": "Jar Jar Binks",
          "height": "196",
          "mass": "66",
          "hair_color": "none",
          "skin_color": "orange",
          "eye_color": "orange",
          "birth_year": "52BBY",
          "gender": "male",
          "homeworld": "http://swapi.dev/api/planets/8/",
          "films": [
            "http://swapi.dev/api/films/4/",
            "http://swapi.dev/api/films/5/"
          ],
          "species": [
            "http://swapi.dev/api/species/12/"
          ],
          "vehicles": [],
          "starships": [],
          "created": "2014-12-19T17:29:32.489000Z",
          "edited": "2014-12-20T21:17:50.383000Z",
          "url": "http://swapi.dev/api/people/36/",
          "favorite": false
        },
        {
          "name": "Roos Tarpals",
          "height": "224",
          "mass": "82",
          "hair_color": "none",
          "skin_color": "grey",
          "eye_color": "orange",
          "birth_year": "unknown",
          "gender": "male",
          "homeworld": "http://swapi.dev/api/planets/8/",
          "films": [
            "http://swapi.dev/api/films/4/"
          ],
          "species": [
            "http://swapi.dev/api/species/12/"
          ],
          "vehicles": [],
          "starships": [],
          "created": "2014-12-19T17:32:56.741000Z",
          "edited": "2014-12-20T21:17:50.385000Z",
          "url": "http://swapi.dev/api/people/37/",
          "favorite": false
        },
        {
          "name": "Rugor Nass",
          "height": "206",
          "mass": "unknown",
          "hair_color": "none",
          "skin_color": "green",
          "eye_color": "orange",
          "birth_year": "unknown",
          "gender": "male",
          "homeworld": "http://swapi.dev/api/planets/8/",
          "films": [
            "http://swapi.dev/api/films/4/"
          ],
          "species": [
            "http://swapi.dev/api/species/12/"
          ],
          "vehicles": [],
          "starships": [],
          "created": "2014-12-19T17:33:38.909000Z",
          "edited": "2014-12-20T21:17:50.388000Z",
          "url": "http://swapi.dev/api/people/38/",
          "favorite": false
        },
        {
          "name": "Ric Olié",
          "height": "183",
          "mass": "unknown",
          "hair_color": "brown",
          "skin_color": "fair",
          "eye_color": "blue",
          "birth_year": "unknown",
          "gender": "male",
          "homeworld": "http://swapi.dev/api/planets/8/",
          "films": [
            "http://swapi.dev/api/films/4/"
          ],
          "species": [],
          "vehicles": [],
          "starships": [
            "http://swapi.dev/api/starships/40/"
          ],
          "created": "2014-12-19T17:45:01.522000Z",
          "edited": "2014-12-20T21:17:50.392000Z",
          "url": "http://swapi.dev/api/people/39/",
          "favorite": false
        },
        {
          "name": "Watto",
          "height": "137",
          "mass": "unknown",
          "hair_color": "black",
          "skin_color": "blue, grey",
          "eye_color": "yellow",
          "birth_year": "unknown",
          "gender": "male",
          "homeworld": "http://swapi.dev/api/planets/34/",
          "films": [
            "http://swapi.dev/api/films/4/",
            "http://swapi.dev/api/films/5/"
          ],
          "species": [
            "http://swapi.dev/api/species/13/"
          ],
          "vehicles": [],
          "starships": [],
          "created": "2014-12-19T17:48:54.647000Z",
          "edited": "2014-12-20T21:17:50.395000Z",
          "url": "http://swapi.dev/api/people/40/",
          "favorite": false
        },
        {
          "name": "Sebulba",
          "height": "112",
          "mass": "40",
          "hair_color": "none",
          "skin_color": "grey, red",
          "eye_color": "orange",
          "birth_year": "unknown",
          "gender": "male",
          "homeworld": "http://swapi.dev/api/planets/35/",
          "films": [
            "http://swapi.dev/api/films/4/"
          ],
          "species": [
            "http://swapi.dev/api/species/14/"
          ],
          "vehicles": [],
          "starships": [],
          "created": "2014-12-19T17:53:02.586000Z",
          "edited": "2014-12-20T21:17:50.397000Z",
          "url": "http://swapi.dev/api/people/41/",
          "favorite": false
        }
      ]
    }
  }
}